{
   "id": "aje8pggi3nsb8go3e8nk",
   "service_account_id": "aje9rp56jodtvb3mffd1",
   "created_at": "2024-07-01T05:54:49.821370141Z",
   "key_algorithm": "RSA_2048",
   "public_key": "-----BEGIN PUBLIC KEY-----\nMIIBIjANBgkqhkiG9w0BAQEFAAOCAQ8AMIIBCgKCAQEAlfKbNbyJzZwRJ3IKe0Qu\nJ2QOOIWiF/xqiMWTXOqV4IEOw7EMRXktBoVmDpwCCWJYji2iqLnlERcjSEDrqtGk\nmvpbX8ictDy1InZtOtQE7msAaCrTH+9Mllad3OtAMQZmJQj0Hmzee7/BI9RU01+8\nRmHtE1EypvUq9L3XhYjPEFQSFLp6x2+JEvsokd+bvRjMrQ0fIXh3CMIhTMc6y1/8\nwE/IC0L+9a720DUC1K9JVVZ5kPCdllrondmq35Cyy5MT72fUUiKc20qnq2b4M7EJ\nwnf71O/G6tfmVYti1wMuBOX96qh7RSmoe+QY9FwO6iq0NlNiX6ON4H4cr8NM8iXx\nTQIDAQAB\n-----END PUBLIC KEY-----\n",
   "private_key": "PLEASE DO NOT REMOVE THIS LINE! Yandex.Cloud SA Key ID \u003caje8pggi3nsb8go3e8nk\u003e\n-----BEGIN PRIVATE KEY-----\nMIIEvAIBADANBgkqhkiG9w0BAQEFAASCBKYwggSiAgEAAoIBAQCV8ps1vInNnBEn\ncgp7RC4nZA44haIX/GqIxZNc6pXggQ7DsQxFeS0GhWYOnAIJYliOLaKoueURFyNI\nQOuq0aSa+ltfyJy0PLUidm061ATuawBoKtMf70yWVp3c60AxBmYlCPQebN57v8Ej\n1FTTX7xGYe0TUTKm9Sr0vdeFiM8QVBIUunrHb4kS+yiR35u9GMytDR8heHcIwiFM\nxzrLX/zAT8gLQv71rvbQNQLUr0lVVnmQ8J2WWuid2arfkLLLkxPvZ9RSIpzbSqer\nZvgzsQnCd/vU78bq1+ZVi2LXAy4E5f3qqHtFKah75Bj0XA7qKrQ2U2Jfo43gfhyv\nw0zyJfFNAgMBAAECggEAChTvYQP1zMbbIGig68jM+AXYlVRNO1YG+hgB4Ho+7LYn\nF/rZDsXzxD+teceWtRE3tj3udQm94EUXlwDgCr9g7rEGk8B/rytyjyHUFkoX5GMT\nxyBmyy7iJ1/x6hJAyD5CsxrDzyF8YM9AkF6MyLZKVZeGXFYi4bbgouctjONPiMY3\nEtmGoAUiesAeSY+AblkJt4eAV1/h801S3jYQ1/6lBOb7BDuLbmMWBdQXCm3dIRwZ\nJ5F79AgLVoub4voCY/oi0GIPD9SCLvhNhI/VvtUCGqQJBIBGz1LFpqUsydm/f3OU\n4oPg+nfg/J27DQ/u/3HvHAtLCb0KuzcwBNLgJoXmwQKBgQC2CaMYSZxSZjSW73Vp\nGpJL+3BeX5PNloyOxcR4vpg7XkR9bhtled4HSLjVeC8CSADovGwVgST8VuPiYXvi\ns9gHOlXGa8JTbU+bUqz+uq29AheNh6qqRrqq/B7cTxYccEMhawp3r2cEnlXEh35u\nr/6lFkIOUL0LS2+KOuMTSMNlPwKBgQDS3y5x7N/lcDQadeyvUgiLQf6kkG2COD9A\nzMQpKFMtMQKO74EK3s6ianP+OdKRqYV+BqdHQEu2Eq/s09DUTLs2e+YGiiR+Br+T\nIOvB9m+hu755tEhb38r0tq4jfy4m+9LyRIvHEuv9ld5iTJ9jeGX2JQpo9bRtGDLq\ncD7v3dUKcwKBgDjJ5txj0mWORuezSkCArpUPmq2GSZjAV5cOsU0twFX9AYbTu647\nh31kPW0y8g9XIRl59on64Ovru2nbGYfOrR0MIMgmw9e86TG+aAOLfznQlkJryV0X\ndZJz1rjJ30794qNhPkG6MXwqXP1Te6jSNLGRsQfAPklwvho0ZrSUZYiHAoGAKWGs\n3qSKh58OSocLzJf/nzxzOV4yb1SUbSYB9MW6FOtCQkSUAUsaJ9tWKfS08urejI3H\ns/7VHMTsC0DCAXeRYa7MxEnFwYmXfMsAGQ9Adu++AGo1rPns/TsAT2z85J+UlQCI\noad/8kK/4nCA8udEsxovwcs9/g66pzEh2LaiwSsCgYA1GjM8Uic+UjpV+zRJ0fEu\nReA9RvvjjlmkejoPzFFn1/Ww0x975aLTxqaZckfNO+833XdjUtr0Bb25c/x0pJme\n6U4NWUR+257w4G6jnBY8XGjrhbvsZW5D4S+sGNCcdMe/d7LOx0/DueO5QniEyC2O\nN2pDnZYj8XnlxdsLx+Smaw==\n-----END PRIVATE KEY-----\n"
}